[
  {
    "id": 1,
    "CI": "1384568294",
    "Nombres": "Gus Rodriguez",
    "Direccion": "Calle 12 Av 45",
    "Telefono": "0996635899",
    "Correo Electronico": "gus@gmail.com"
  },
  {
    "id": 2,
    "CI": "1384568294",
    "Apellidos": "Gus Rodriguez",
    "Nombres": "Gus Rodriguez",
    "Semestre": "Calle 12 Av 45",
    "Paralelo": "A"
  },
  {
    "id": 3,
    "CI": "1384568294",
    "Apellidos": "Gus Rodriguez",
    "Nombres": "Gus Rodriguez",
    "Semestre": "Calle 12 Av 45",
    "Paralelo": "A"
  },
  {
    "id": 4,
    "CI": "1384568294",
    "Apellidos": "Gus Rodriguez",
    "Nombres": "Gus Rodriguez",
    "Semestre": "Calle 12 Av 45",
    "Paralelo": "A"
  },
  {
    "id": 5,
    "CI": "1384568294",
    "Apellidos": "Gus Rodriguez",
    "Nombres": "Gus Rodriguez",
    "Semestre": "Calle 12 Av 45",
    "Paralelo": "A"
  },
  {
    "id": 6,
    "CI": "1384568294",
    "Apellidos": "Gus Rodriguez",
    "Nombres": "Gus Rodriguez",
    "Semestre": "Calle 12 Av 45",
    "Paralelo": "A"
  },
  {
    "id": 7,
    "CI": "1384568294",
    "Apellidos": "Gus Rodriguez",
    "Nombres": "Gus Rodriguez",
    "Semestre": "Calle 12 Av 45",
    "Paralelo": "A"
  },
  {
    "id": 8,
    "CI": "1384568294",
    "Apellidos": "Gus Rodriguez",
    "Nombres": "Gus Rodriguez",
    "Semestre": "Calle 12 Av 45",
    "Paralelo": "A"
  },
  {
    "id": 9,
    "CI": "1384568294",
    "Apellidos": "Gus Rodriguez",
    "Nombres": "Gus Rodriguez",
    "Semestre": "Calle 12 Av 45",
    "Paralelo": "A"
  },
  {
    "id": 10,
    "CI": "1384568294",
    "Apellidos": "Gus Rodriguez",
    "Nombres": "Gus Rodriguez",
    "Semestre": "Calle 12 Av 45",
    "Paralelo": "A"
  }
]